{
  "results": [
    {
      "vote_count": 1613,
      "id": 315635,
      "video": false,
      "vote_average": 7.4,
      "title": "Spider-Man: Homecoming",
      "popularity": 74.357296,
      "poster_path": "\/c24sv2weTHPsmDa7jEMN0m2P3RT.jpg",
      "original_language": "en",
      "original_title": "Spider-Man: Homecoming",
      "genre_ids": [
        28,
        12,
        878
      ],
      "backdrop_path": "\/fn4n6uOYcB6Uh89nbNPoU2w80RV.jpg",
      "adult": false,
      "overview": "Following the events of Captain America: Civil War, Peter Parker, with the help of his mentor Tony Stark, tries to balance his life as an ordinary high school student in Queens, New York City, with fighting crime as his superhero alter ego Spider-Man as a new threat, the Vulture, emerges.",
      "release_date": "2017-07-05"
    },
    {
      "vote_count": 574,
      "id": 281338,
      "video": false,
      "vote_average": 6.5,
      "title": "War for the Planet of the Apes",
      "popularity": 60.217772,
      "poster_path": "\/y52mjaCLoJJzxfcDDlksKDngiDx.jpg",
      "original_language": "en",
      "original_title": "War for the Planet of the Apes",
      "genre_ids": [
        18,
        878,
        10752
      ],
      "backdrop_path": "\/w4ZYFLJbiqZyvCcGHgvaHD6lTqQ.jpg",
      "adult": false,
      "overview": "Caesar and his apes are forced into a deadly conflict with an army of humans led by a ruthless Colonel. After the apes suffer unimaginable losses, Caesar wrestles with his darker instincts and begins his own mythic quest to avenge his kind. As the journey finally brings them face to face, Caesar and the Colonel are pitted against each other in an epic battle that will determine the fate of both their species and the future of the planet.",
      "release_date": "2017-07-11"
    },
    {
      "vote_count": 684,
      "id": 339403,
      "video": false,
      "vote_average": 6.8,
      "title": "Baby Driver",
      "popularity": 23.616515,
      "poster_path": "\/dN9LbVNNZFITwfaRjl4tmwGWkRg.jpg",
      "original_language": "en",
      "original_title": "Baby Driver",
      "genre_ids": [
        28,
        80
      ],
      "backdrop_path": "\/xWPXlLKSLGUNYzPqxDyhfij7bBi.jpg",
      "adult": false,
      "overview": "After being coerced into working for a crime boss, a young getaway driver finds himself taking part in a heist doomed to fail.",
      "release_date": "2017-06-28"
    },
    {
      "vote_count": 157,
      "id": 339964,
      "video": false,
      "vote_average": 6.8,
      "title": "Valerian and the City of a Thousand Planets",
      "popularity": 21.001977,
      "poster_path": "\/8L7FE3bXjN98BcmKANzrL9WwKsK.jpg",
      "original_language": "en",
      "original_title": "Valerian and the City of a Thousand Planets",
      "genre_ids": [
        12,
        878,
        28
      ],
      "backdrop_path": "\/o6OhxtsgMurL4h68Uqei0aSPMNr.jpg",
      "adult": false,
      "overview": "In the 28th century, Valerian and Laureline are special operatives charged with keeping order throughout the human territories. On assignment from the Minister of Defense, the two undertake a mission to Alpha, an ever-expanding metropolis where species from across the universe have converged over centuries to share knowledge, intelligence, and cultures. At the center of Alpha is a mysterious dark force which threatens the peaceful existence of the City of a Thousand Planets, and Valerian and Laureline must race to identify the menace and safeguard not just Alpha, but the future of the universe.",
      "release_date": "2017-07-20"
    },
    {
      "vote_count": 751,
      "id": 274857,
      "video": false,
      "vote_average": 6.4,
      "title": "King Arthur: Legend of the Sword",
      "popularity": 18.799596,
      "poster_path": "\/qyXPqzlCWf3T9VEpBtquUQZwsgi.jpg",
      "original_language": "en",
      "original_title": "King Arthur: Legend of the Sword",
      "genre_ids": [
        28,
        18,
        14
      ],
      "backdrop_path": "\/22eFfWlar6MtXO5qG25TkjLphoj.jpg",
      "adult": false,
      "overview": "When the child Arthur’s father is murdered, Vortigern, Arthur’s uncle, seizes the crown. Robbed of his birthright and with no idea who he truly is, Arthur comes up the hard way in the back alleys of the city. But once he pulls the sword Excalibur from the stone, his life is turned upside down and he is forced to acknowledge his true legacy... whether he likes it or not.",
      "release_date": "2017-04-27"
    },
    {
      "vote_count": 49,
      "id": 341013,
      "video": false,
      "vote_average": 6.3,
      "title": "Atomic Blonde",
      "popularity": 15.987292,
      "poster_path": "\/tCZRyRiOOgTeOFeG2xAdGsU2nuM.jpg",
      "original_language": "en",
      "original_title": "Atomic Blonde",
      "genre_ids": [
        53
      ],
      "backdrop_path": "\/lj3wkYkJGkfmDfXkKrVarSJpFD4.jpg",
      "adult": false,
      "overview": "An undercover MI6 agent is sent to Berlin during the Cold War to investigate the murder of a fellow agent and recover a missing list of double agents.",
      "release_date": "2017-07-26"
    },
    {
      "vote_count": 74,
      "id": 417870,
      "video": false,
      "vote_average": 6.7,
      "title": "Girls Trip",
      "popularity": 13.111063,
      "poster_path": "\/94nCLn74lBh4pLdZPIad18BpheE.jpg",
      "original_language": "en",
      "original_title": "Girls Trip",
      "genre_ids": [
        35
      ],
      "backdrop_path": "\/eHwZWKWQAwB98krGQ18RFp9Hw3e.jpg",
      "adult": false,
      "overview": "Four girlfriends take a trip to New Orleans for an annual festival and, along the way, rediscover their wild sides and strengthen the bonds of sisterhood.",
      "release_date": "2017-07-21"
    },
    {
      "vote_count": 362,
      "id": 314095,
      "video": false,
      "vote_average": 6,
      "title": "The Lost City of Z",
      "popularity": 11.048431,
      "poster_path": "\/uLHorVHuWQZ1HugTp0bbD19jef7.jpg",
      "original_language": "en",
      "original_title": "The Lost City of Z",
      "genre_ids": [
        28,
        12,
        18,
        36
      ],
      "backdrop_path": "\/dAQzSsITJVxyk9ChqPLyBEwtGuC.jpg",
      "adult": false,
      "overview": "At the dawn of the 20th century, British explorer Percy Fawcett journeys into the Amazon, where he discovers evidence of a previously unknown, advanced civilization that may have once inhabited the region. Despite being ridiculed by the scientific establishment, which views indigenous populations as savages, the determined Fawcett, supported by his devoted wife, son, and aide-de-camp, returns to his beloved jungle in an attempt to prove his case.",
      "release_date": "2017-03-15"
    },
    {
      "vote_count": 29,
      "id": 378236,
      "video": false,
      "vote_average": 4.1,
      "title": "The Emoji Movie",
      "popularity": 10.386109,
      "poster_path": "\/fvr5etD00qupuL0YcTVfz8msJCa.jpg",
      "original_language": "en",
      "original_title": "The Emoji Movie",
      "genre_ids": [
        35,
        10751,
        16
      ],
      "backdrop_path": "\/8XMYUCp58EfauIYGT0bTTtHe1tm.jpg",
      "adult": false,
      "overview": "Gene, a multi-expressional emoji, sets out on a journey to become a normal emoji.",
      "release_date": "2017-07-28"
    },
    {
      "vote_count": 11,
      "id": 353491,
      "video": false,
      "vote_average": 4.2,
      "title": "The Dark Tower",
      "popularity": 9.088137,
      "poster_path": "\/i9GUSgddIqrroubiLsvvMRYyRy0.jpg",
      "original_language": "en",
      "original_title": "The Dark Tower",
      "genre_ids": [
        37,
        878,
        14,
        27
      ],
      "backdrop_path": "\/2n7Zn6WxJ76ccOwnuQHuhSFMbqt.jpg",
      "adult": false,
      "overview": "The last Gunslinger, Roland Deschain, has been locked in an eternal battle with Walter O’Dim, also known as the Man in Black, determined to prevent him from toppling the Dark Tower, which holds the universe together. With the fate of the worlds at stake, good and evil will collide in the ultimate battle as only Roland can defend the Tower from the Man in Black.",
      "release_date": "2017-07-27"
    },
    {
      "vote_count": 13,
      "id": 410554,
      "video": false,
      "vote_average": 5.2,
      "title": "First Kill",
      "popularity": 6.08207,
      "poster_path": "\/zoia9YSg82UNYbtum9QYjKSqdLw.jpg",
      "original_language": "en",
      "original_title": "First Kill",
      "genre_ids": [
        53,
        28
      ],
      "backdrop_path": "\/dhX8LZJkREFmRcrbEGNkf6EE0OL.jpg",
      "adult": false,
      "overview": "A police chief tries to solve a kidnapping that involves a bank robber holding a young boy hostage.",
      "release_date": "2017-07-21"
    },
    {
      "vote_count": 367,
      "id": 403119,
      "video": false,
      "vote_average": 4.7,
      "title": "47 Meters Down",
      "popularity": 5.86702,
      "poster_path": "\/HmALxBQK8SKpOEOmqyFxOavIPR.jpg",
      "original_language": "en",
      "original_title": "47 Meters Down",
      "genre_ids": [
        53,
        27
      ],
      "backdrop_path": "\/6j8B3BqTuNrpAJoa0JIc7nZzOUn.jpg",
      "adult": false,
      "overview": "Two sisters on Mexican vacation are trapped in a shark observation cage at the bottom of the ocean, with oxygen running low and great whites circling nearby, they have less than an hour of air left to figure out how to get to the surface.",
      "release_date": "2017-06-15"
    },
    {
      "vote_count": 266,
      "id": 324542,
      "video": false,
      "vote_average": 5.7,
      "title": "Sleepless",
      "popularity": 5.672962,
      "poster_path": "\/9WkUSY33MDPGmz0vtzbsfaxTHVa.jpg",
      "original_language": "en",
      "original_title": "Sleepless",
      "genre_ids": [
        28,
        80,
        53
      ],
      "backdrop_path": "\/rwHgGsFGAWkg8AhIeKrbYvHJQJC.jpg",
      "adult": false,
      "overview": "Undercover Las Vegas police officer Vincent Downs is caught in a high stakes web of corrupt cops and the mob-controlled casino underground. When a heist goes wrong, a crew of homicidal gangsters kidnaps Downs’ teenage son. In one sleepless night he will have to rescue his son, evade an internal affairs investigation and bring the kidnappers to justice.",
      "release_date": "2017-01-12"
    },
    {
      "vote_count": 28,
      "id": 440597,
      "video": false,
      "vote_average": 4.9,
      "title": "Wish Upon",
      "popularity": 4.787869,
      "poster_path": "\/u0vnocj57vJt5DHoBEqUOD1G4SU.jpg",
      "original_language": "en",
      "original_title": "Wish Upon",
      "genre_ids": [
        14,
        27,
        53
      ],
      "backdrop_path": "\/l0dvARJQ6xZeVPhxSS5EYibYGBR.jpg",
      "adult": false,
      "overview": "A teenage girl discovers a box with magical powers, but those powers comes with a deadly price.",
      "release_date": "2017-07-07"
    },
    {
      "vote_count": 55,
      "id": 416477,
      "video": false,
      "vote_average": 8.1,
      "title": "The Big Sick",
      "popularity": 4.77114,
      "poster_path": "\/qquEFkFbQX1i8Bal260EgGCnZ0f.jpg",
      "original_language": "en",
      "original_title": "The Big Sick",
      "genre_ids": [
        18,
        35,
        10749
      ],
      "backdrop_path": "\/fYI8WX2DquAHMqwh5mOMxc6RU5j.jpg",
      "adult": false,
      "overview": "A couple deals with their cultural differences as their relationship grows.",
      "release_date": "2017-06-23"
    },
    {
      "vote_count": 2,
      "id": 346364,
      "video": false,
      "vote_average": 0,
      "title": "It",
      "popularity": 4.670027,
      "poster_path": "\/9E2y5Q7WlCVNEhP5GiVTjhEhx1o.jpg",
      "original_language": "en",
      "original_title": "It",
      "genre_ids": [
        27
      ],
      "backdrop_path": "\/g8wnyyR6vlZjfdePD2v1lKGLUix.jpg",
      "adult": false,
      "overview": "In a small town in Maine, seven children known as The Losers Club come face to face with life problems, bullies and a monster that takes the shape of a clown called Pennywise.",
      "release_date": "2017-08-17"
    },
    {
      "vote_count": 173,
      "id": 417678,
      "video": false,
      "vote_average": 7.2,
      "title": "Everything, Everything",
      "popularity": 3.991591,
      "poster_path": "\/c8W3Go48Mw0GoNXsGK4W9hNO4Vf.jpg",
      "original_language": "en",
      "original_title": "Everything, Everything",
      "genre_ids": [
        18,
        10749
      ],
      "backdrop_path": "\/k4o5RdOS6Y1cSfihf1FIoy7DgJe.jpg",
      "adult": false,
      "overview": "A teenager who's lived a sheltered life because she's allergic to everything, falls for the boy who moves in next door.",
      "release_date": "2017-05-19"
    },
    {
      "vote_count": 246,
      "id": 245698,
      "video": false,
      "vote_average": 6.7,
      "title": "Pawn Sacrifice",
      "popularity": 3.869781,
      "poster_path": "\/mxdpBuSMqql2Uvv27NIV1pahcsW.jpg",
      "original_language": "en",
      "original_title": "Pawn Sacrifice",
      "genre_ids": [
        53,
        18
      ],
      "backdrop_path": "\/7Tt7UjlyccQpM6IKqzJI45DYXVR.jpg",
      "adult": false,
      "overview": "American chess champion Bobby Fischer prepares for a legendary match-up against Russian Boris Spassky.",
      "release_date": "2015-09-16"
    },
    {
      "vote_count": 129,
      "id": 353569,
      "video": false,
      "vote_average": 6.1,
      "title": "Table 19",
      "popularity": 3.652809,
      "poster_path": "\/vz0CWnSwcQz1si7pLZp4hC4A1zi.jpg",
      "original_language": "en",
      "original_title": "Table 19",
      "genre_ids": [
        35,
        18
      ],
      "backdrop_path": "\/c7kC6TKTZkQSOh2YINgmbVk2N35.jpg",
      "adult": false,
      "overview": "Eloise, having been relieved of maid of honor duties after being unceremoniously dumped by the best man via text, decides to attend the wedding anyway – only to find herself seated with five fellow-unwanted guests at the dreaded Table 19.",
      "release_date": "2017-01-20"
    },
    {
      "vote_count": 0,
      "id": 407448,
      "video": false,
      "vote_average": 0,
      "title": "Detroit",
      "popularity": 3.641115,
      "poster_path": "\/7APLVpsGzXPJw16ZuBtXICxq8B9.jpg",
      "original_language": "en",
      "original_title": "Detroit",
      "genre_ids": [
        53,
        80,
        18,
        36
      ],
      "backdrop_path": "\/kEnLnpRnF3gL98j59TIY7rzOXui.jpg",
      "adult": false,
      "overview": "A police raid in Detroit in 1967 results in one of the largest citizens' uprisings in the history of the United States.",
      "release_date": "2017-07-28"
    }
  ],
  "page": 1,
  "total_results": 189,
  "dates": {
    "maximum": "2017-08-22",
    "minimum": "2017-08-06"
  },
  "total_pages": 10
}
